{

	"pages": [{
			"path": "pages/login/login",
			"style": {
				"backgroundColorTop": "#5677FC",
				"backgroundColorBottom": "#ffffff",
				"navigationStyle": "custom"
			}
		},
		{
			"path": "pages/login/registers",
			"style": {
				"enablePullDownRefresh": false,
				"navigationStyle": "custom"
			}
		},
		{
			"path": "pages/login/modifyPhone",
			"style": {
				"navigationStyle": "custom"
			}
		}, {
			"path": "pages/home/index",
			"style": {
				"enablePullDownRefresh": true,
				"navigationStyle": "custom"
			}
		}, {
			"path": "pages/home/webView",
			"style": {}
		}, {
			"path": "pages/storeManagement/physicalStore",
			"style": {
				"navigationStyle": "custom"
			}
		},
		{
			"path": "pages/webview/index",
			"style": {}
		},
		{
			"path": "pages/webview/customService",
			"style": {}
		},
		{
			"path": "pages/user/index",
			"style": {
				"navigationStyle": "custom"
			}
		},
		{
			"path": "pages/user/setting",
			"style": {
				"navigationStyle": "custom"
			}
		},
		{
			"path": "pages/home/defaultPage",
			"style": {
				"enablePullDownRefresh": true,
				"navigationStyle": "custom"
			}
		},{
			"path": "pages/goods/goodsClassify",
			"style": {
				"navigationStyle": "custom"
			}
		},{
			"path": "pages/goods/goodsDetail",
			"style": {
				"navigationStyle": "custom"
			}
		},{
			"path": "pages/goods/shoppingCart",
			"style": {
				"navigationStyle": "custom"
			}
		}
	],
	"subPackages": [{
		"root": "pagesA",
		"pages": [{
			"path": "order/confirmOrder",
			"style": {
				"navigationStyle": "custom"
			}
		},{
			"path": "address/address",
			"style": {
				"navigationStyle":"custom"
			}
		},
		{
			"path": "address/newAddress",
			"style": {
				"navigationStyle":"custom"
			}
		},{
			"path": "order/pwdDilag",
			"style": {
				"navigationStyle": "custom"
			}
		}, {
			"path": "cMall/goods/goodsDetail",
			"style": {
				"navigationStyle": "custom"
			}

		}, {
			"path": "cMall/shoppingCart/index",
			"style": {
				"navigationStyle": "custom"
			}
		},
		{
			"path": "cMall/order/confirmOrder",
			"style": {
				"navigationStyle": "custom"
			}
		},{
			"path": "trainingCenter/index",
			"style": {
				"navigationStyle": "custom"
			}
		},
		{
			"path": "trainingCenter/trainingWill/list",
			"style": {
				"navigationStyle": "custom"
			}
		},
		{
			"path": "trainingCenter/trainingWill/details",
			"style": {
				"navigationStyle": "custom"
			}
		},
		{
			"path": "trainingCenter/trainingWill/successPage",
			"style": {
				"navigationStyle": "custom"
			}
		},{
			"path": "account/amountTransferred",
			"style": {
				"navigationStyle": "custom"
			}
		}]
	}],

	"globalStyle": {
		"navigationBarTextStyle": "black",
		"navigationBarTitleText": "uni-app",
		"navigationBarBackgroundColor": "#F8F8F8",
		"backgroundColor": "#F8F8F8"

	},
	"uniIdRouter": {}
}